…
```
data(exmpl_all, exmpl_sel)
go_terms <- prepare_for_enrichment(go$terms, go$mapping, exmpl_all, feature_name = "gene_symbol")
```

`go_terms` is a data structure containing all the mappings in quickly accessible form. From this point on, `go_terms` can be used to do multiple functional enrichments on various gene selections. For example, if `exmpl_all` is a vector with all background gene symbols and `exmpl_sel` is a vector with genes of interest (both attached to the package), functional enrichment can be found using

```
enr <- functional_enrichment(exmpl_all, exmpl_sel, go_terms)
```

The result is a tibble:

```
# A tibble: 51 × 10
  term_id    term_name                                N_with n_with_sel n_expect enrichment odds_ratio ids    p_value p_adjust
   <chr>      <chr>                                     <int>      <int>    <dbl>      <dbl>      <dbl> <chr>    <dbl>    <dbl>
 1 GO:1905356 regulation of snRNA pseudouridine synth…      2          2     0.01      333        Inf   TOR2… 8.61e- 6 5.49e- 5
 2 GO:0031929 TOR signaling                                19         18     0.06      315      41800   TOR2… 0        0       
 3 GO:0031931 TORC1 complex                                11         10     0.03      302       6330   TOR2… 0        0       
 4 GO:0001558 regulation of cell growth                     9          5     0.03      185        544   KOG1… 1.84e-11 2.34e-10
 5 GO:0031932 TORC2 complex                                15          7     0.05      155        435   TOR2… 4.66e-15 7.93e-14
 6 GO:0016242 negative regulation of macroautophagy         9          3     0.03      111        193   KSP1… 1.95e- 6 1.42e- 5
 7 GO:0043666 regulation of phosphoprotein phosphatas…     13          4     0.04      102        182   SAP1… 4.24e- 8 4.33e- 7
 8 GO:0030950 establishment or maintenance of actin c…     15          4     0.05       88.7      149   TOR2… 8.07e- 8 6.86e- 7
 9 GO:0031930 mitochondria-nucleus signaling pathway        9          2     0.03       73.9      105   TOR1… 3.06e- 4 1.3 e- 3
10 GO:0010507 negative regulation of autophagy             12          2     0.04       55.4       73.2 TOR2… 5.58e- 4 2.03e- 3
# ℹ 41 more rows
```
…
